{
  "owner": "obsidiansystems",
  "repo": "opam2nix-packages",
  "branch": "master",
  "rev": "7dbc2eb56fb1e9601ac5efc96a8e943d28695bf0",
  "sha256": "1lidbv092c7iihhn3av8vfciyi9pgr4c213216j3y5alc136n7x4"
}
