{
  "url": "https://gitlab.com/obsidian.systems/tezos.git",
  "rev": "9faac0086b8f86c2300ad001a36777f2a29745fb",
  "sha256": "0ghhj5jyb7b2wd0j2xq74rvfy5x74i5vhjif6h6bn9yam57yd1hn",
  "fetchSubmodules": false,
  "branch": "master"
}
