{
  "url": "https://gitlab.com/tezos/tezos.git",
  "rev": "0f0a78e85bc41b20f37175791e21c7098d089eb8",
  "sha256": "08882fcxyw22ch027wzvyh0knqlarcg6g8w2dqxlhssfdlq0b7px",
  "fetchSubmodules": false,
  "branch": "mainnet"
}
